%YAML 1.1
%TAG !u! tag:unity3d.com,2011:
--- !u!114 &11400000
MonoBehaviour:
  m_ObjectHideFlags: 0
  m_PrefabParentObject: {fileID: 0}
  m_PrefabInternal: {fileID: 0}
  m_GameObject: {fileID: 0}
  m_Enabled: 1
  m_EditorHideFlags: 0
  m_Script: {fileID: 11500000, guid: 332f06cb8d40d7d47bf6918f3fcda03d, type: 3}
  m_Name: AnDerHuette
  m_EditorClassIdentifier: 
  characters:
  - Kassandra
  - Kamu
  subtitles:
  - {fileID: 11400000, guid: 5df25c19a26a04747b9c256b7d165363, type: 2}
  - {fileID: 11400000, guid: 1c3a4360bb5074049bd5221a284144f1, type: 2}
  - {fileID: 11400000, guid: f3dd9853b860964438d3ea6f206376f9, type: 2}
  - {fileID: 11400000, guid: bf5d704da1901a048b347cf7200fee37, type: 2}
  - {fileID: 11400000, guid: dddb68200535dcb4ca97744e510f0c9c, type: 2}
  - {fileID: 11400000, guid: c5e4646021a7ba145a23b65754c2ff3b, type: 2}
  - {fileID: 11400000, guid: 6945168233938ad46bad1d694086d983, type: 2}
  - {fileID: 11400000, guid: 54291a55b3d685e4389c115888ebf40d, type: 2}
  - {fileID: 11400000, guid: e863bc3bee996aa4fbc4785a0c6c37d8, type: 2}
  - {fileID: 11400000, guid: 92cb06b15bebd3c40910c53a733442c9, type: 2}
  - {fileID: 11400000, guid: 66a033785290ea6418bf7b4716f484ee, type: 2}
  - {fileID: 11400000, guid: 7f1f1a8e22a276f4cbc9d867bcc60668, type: 2}
  - {fileID: 11400000, guid: ba7a1b0da9dc55145ad05e057f8ad61b, type: 2}
  - {fileID: 11400000, guid: a40f1f9fcb6b229499355498dbbd646f, type: 2}
  - {fileID: 11400000, guid: a1d03715f52b6cd4381c0d6401cf8a65, type: 2}
  - {fileID: 11400000, guid: 153023313a25e28478ca2a7ad55c3232, type: 2}
  - {fileID: 11400000, guid: 0c0dcae8dcc677647ab1ec0cd959305d, type: 2}
  - {fileID: 11400000, guid: 633ca289d887d9b498fccaf6d7c44bcf, type: 2}
  - {fileID: 11400000, guid: 0d0316b9ba81b1543941891f587f8afa, type: 2}
  - {fileID: 11400000, guid: 5cea55b5d9782ac4dacb0ace787471a6, type: 2}
  - {fileID: 11400000, guid: 011dc1b011bf1e0489b25ca932ccc369, type: 2}
  - {fileID: 11400000, guid: 525cf5402c1788e4f913ec3497ee829d, type: 2}
  playable: {fileID: 11400000, guid: d0d7ec9014e4e8f4a9757c5cf4f71270, type: 2}
