%YAML 1.1
%TAG !u! tag:unity3d.com,2011:
--- !u!114 &11400000
MonoBehaviour:
  m_ObjectHideFlags: 0
  m_PrefabParentObject: {fileID: 0}
  m_PrefabInternal: {fileID: 0}
  m_GameObject: {fileID: 0}
  m_Enabled: 1
  m_EditorHideFlags: 0
  m_Script: {fileID: 11500000, guid: c81933941a2771d45bba48af0447b2d4, type: 3}
  m_Name: Kam1
  m_EditorClassIdentifier: 
  chracter: Kamu
  text: "Bin schon da! Hab nur eben nach Spuren gesucht... \r\nWollen wir schon aufbrechen?
    \r\n(kurze Entt\xE4uschung, aber dann hellt sich sein Gesicht auf)\r\nNa dann
    los, vielleicht bekommen wir im Dorf mehr Informationen was diese Ding gewesen
    sein k\xF6nnte.\r"
