%YAML 1.1
%TAG !u! tag:unity3d.com,2011:
--- !u!114 &11400000
MonoBehaviour:
  m_ObjectHideFlags: 0
  m_PrefabParentObject: {fileID: 0}
  m_PrefabInternal: {fileID: 0}
  m_GameObject: {fileID: 0}
  m_Enabled: 1
  m_EditorHideFlags: 0
  m_Script: {fileID: 11500000, guid: 8d5479797aae12d4996c183643c76652, type: 3}
  m_Name: Farmer1Dec1Effect
  m_EditorClassIdentifier: 
  displayText: "Der Bauer ist offensichtlich entt\xE4uscht, fasst sich aber schnell
    wieder und w\xFCnscht noch einen sch\xF6nen Tag. Er macht sich daraufhin wieder
    auf seinen Weg, zum n\xE4chsten Markt."
  titleText: 
  flavourImage: {fileID: 0}
  lifeTime: 0
  textBox: {fileID: 0}
  desicionTextBox: {fileID: 0}
  storyPart: 
  textPosition: 1
  types: 02000000
  desicions: []
  minGroupSize: 0
  oneTime: 0
  neededEntities: []
  setAP: 0
  daysToBuff: 0
  apToBuff: 0
  radius: 0
