%YAML 1.1
%TAG !u! tag:unity3d.com,2011:
--- !u!114 &11400000
MonoBehaviour:
  m_ObjectHideFlags: 0
  m_PrefabParentObject: {fileID: 0}
  m_PrefabInternal: {fileID: 0}
  m_GameObject: {fileID: 0}
  m_Enabled: 1
  m_EditorHideFlags: 0
  m_Script: {fileID: 11500000, guid: 8d5479797aae12d4996c183643c76652, type: 3}
  m_Name: Hunt7
  m_EditorClassIdentifier: 
  displayText: "Der Wald hier scheint unber\xFChrt zu sein. Es f\xFChlt sich so an
    als w\xE4re hier seit Jahrhunderten kein Mensch mehr vorbei gekommen. Als sich
    vorsichtig eine Gruppe Rotwild n\xE4hert, bietet sich eine einmalige Gelegenheit,
    eine besondere Mahlzeit zu beschaffen."
  titleText: Die Jagd
  flavourImage: {fileID: 21300000, guid: 241658b671c3bbe499f605745e87ab28, type: 3}
  lifeTime: 0
  textBox: {fileID: 0}
  desicionTextBox: {fileID: 114042181899701978, guid: 88fc960d9e6e6404db1f3ebe84688227,
    type: 2}
  storyPart: 
  textPosition: 0
  types: 05000000
  desicions:
  - {fileID: 11400000, guid: 34ca2e24c157f5f4d8fb18ea2d8ca161, type: 2}
  - {fileID: 11400000, guid: 78e4adf7c0ee4c0429986a4d2e04d555, type: 2}
  minGroupSize: 0
  oneTime: 1
  neededEntities: []
  setAP: 0
  daysToBuff: 0
  apToBuff: 0
  radius: 0
