%YAML 1.1
%TAG !u! tag:unity3d.com,2011:
--- !u!114 &11400000
MonoBehaviour:
  m_ObjectHideFlags: 0
  m_PrefabParentObject: {fileID: 0}
  m_PrefabInternal: {fileID: 0}
  m_GameObject: {fileID: 0}
  m_Enabled: 1
  m_EditorHideFlags: 0
  m_Script: {fileID: 11500000, guid: 8d5479797aae12d4996c183643c76652, type: 3}
  m_Name: Treasure
  m_EditorClassIdentifier: 
  displayText: "Es scheint sich nicht wirklich Etwas in der Umgebung ver\xE4ndert
    zu haben, aber pl\xF6tzlich scheint sich eine Art gr\xF6sserer Wildpfad im Unterholz
    abzubilden. Kurz darauf erscheint ein kleines eingefallenes Geb\xE4ude. Darin
    wiederum befindet sich eine Art R\xFCstungskammer. Das meiste ist eingefallen,
    verrottet oder verrostet, aber nach kurzer Suche sind ein paar interessante Ausr\xFCstungsteile
    auffindbar. "
  titleText: 
  flavourImage: {fileID: 0}
  lifeTime: 0
  textBox: {fileID: 0}
  desicionTextBox: {fileID: 0}
  storyPart: 
  textPosition: 1
  types: 0200000007000000
  desicions: []
  minGroupSize: 0
  oneTime: 1
  neededEntities: []
  setAP: 0
  daysToBuff: 999
  apToBuff: 1
  radius: 0
