%YAML 1.1
%TAG !u! tag:unity3d.com,2011:
--- !u!114 &11400000
MonoBehaviour:
  m_ObjectHideFlags: 0
  m_PrefabParentObject: {fileID: 0}
  m_PrefabInternal: {fileID: 0}
  m_GameObject: {fileID: 0}
  m_Enabled: 1
  m_EditorHideFlags: 0
  m_Script: {fileID: 11500000, guid: c81933941a2771d45bba48af0447b2d4, type: 3}
  m_Name: Erz1
  m_EditorClassIdentifier: 
  chracter: "Erz\xE4hler"
  text: "In Tannheim angekommen macht sich Kamu sofort auf, das Dorf zu erkunden.
    Kassandra und Rufus suchen derweil den \xF6rtlichen Arzt auf. Vor dessen T\xFCr
    bleiben die beiden stehen."
