%YAML 1.1
%TAG !u! tag:unity3d.com,2011:
--- !u!114 &11400000
MonoBehaviour:
  m_ObjectHideFlags: 0
  m_PrefabParentObject: {fileID: 0}
  m_PrefabInternal: {fileID: 0}
  m_GameObject: {fileID: 0}
  m_Enabled: 1
  m_EditorHideFlags: 0
  m_Script: {fileID: 11500000, guid: c81933941a2771d45bba48af0447b2d4, type: 3}
  m_Name: Ruf2
  m_EditorClassIdentifier: 
  chracter: Rufus
  text: Ich bin Rufus. Was macht ihr hier?
